%YAML 1.1
%TAG !u! tag:unity3d.com,2011:
--- !u!114 &11400000
MonoBehaviour:
  m_ObjectHideFlags: 0
  m_CorrespondingSourceObject: {fileID: 0}
  m_PrefabInstance: {fileID: 0}
  m_PrefabAsset: {fileID: 0}
  m_GameObject: {fileID: 0}
  m_Enabled: 1
  m_EditorHideFlags: 0
  m_Script: {fileID: 11500000, guid: 316502636795685428d13b5236bf1abd, type: 3}
  m_Name: DirtyWater
  m_EditorClassIdentifier: 
  itemName: Dirty Water
  itemID: 3
  lvlReq: 1
  description: Drinkable, but only god knows what is inside.
  icon: {fileID: 21300000, guid: 9c41c2743bdaa294aaaec6f44e1bd48d, type: 3}
  useEffect: 'Use: Drink Dirty Water to regain some mana.. side effects may apply.'
  itemFunction: 
  parameters: []
  useCooldownSeconds: 0
  lore: 
  spriteInGame: {fileID: 21300000, guid: 9c41c2743bdaa294aaaec6f44e1bd48d, type: 3}
  isStackable: 1
  pickUp: {fileID: 0}
  type: 1
  rarity: 0
  maxStack: 20
  currentStack: 1
  hasAnim: 0
  frames: []
